('C:\\Users\\dydrn\\PycharmProjects\\2dgpProject\\2dgpLab\\Lab15(AppPackaging)\\build\\test\\out00-PKG.pkg',
 {'BINARY': 1,
  'DATA': 1,
  'EXECUTABLE': 1,
  'EXTENSION': 1,
  'PYMODULE': 1,
  'PYSOURCE': 1,
  'PYZ': 0},
 [('out00-PYZ.pyz',
   'C:\\Users\\dydrn\\PycharmProjects\\2dgpProject\\2dgpLab\\Lab15(AppPackaging)\\build\\test\\out00-PYZ.pyz',
   'PYZ'),
  ('struct',
   'c:\\users\\dydrn\\appdata\\local\\programs\\python\\python35\\lib\\struct.pyo',
   'PYMODULE'),
  ('pyimod01_os_path',
   'c:\\users\\dydrn\\appdata\\local\\programs\\python\\python35\\lib\\site-packages\\PyInstaller\\loader\\pyimod01_os_path.pyc',
   'PYMODULE'),
  ('pyimod02_archive',
   'c:\\users\\dydrn\\appdata\\local\\programs\\python\\python35\\lib\\site-packages\\PyInstaller\\loader\\pyimod02_archive.pyc',
   'PYMODULE'),
  ('pyimod03_importers',
   'c:\\users\\dydrn\\appdata\\local\\programs\\python\\python35\\lib\\site-packages\\PyInstaller\\loader\\pyimod03_importers.pyc',
   'PYMODULE'),
  ('pyiboot01_bootstrap',
   'c:\\users\\dydrn\\appdata\\local\\programs\\python\\python35\\lib\\site-packages\\PyInstaller\\loader\\pyiboot01_bootstrap.py',
   'PYSOURCE'),
  ('test',
   'C:\\Users\\dydrn\\PycharmProjects\\2dgpProject\\2dgpLab\\Lab15(AppPackaging)\\test.py',
   'PYSOURCE'),
  ('VCRUNTIME140.dll',
   'c:\\users\\dydrn\\appdata\\local\\programs\\python\\python35\\VCRUNTIME140.dll',
   'BINARY'),
  ('python35.dll',
   'c:\\users\\dydrn\\appdata\\local\\programs\\python\\python35\\python35.dll',
   'BINARY'),
  ('_ssl',
   'c:\\users\\dydrn\\appdata\\local\\programs\\python\\python35\\DLLs\\_ssl.pyd',
   'EXTENSION'),
  ('pyexpat',
   'c:\\users\\dydrn\\appdata\\local\\programs\\python\\python35\\DLLs\\pyexpat.pyd',
   'EXTENSION'),
  ('_hashlib',
   'c:\\users\\dydrn\\appdata\\local\\programs\\python\\python35\\DLLs\\_hashlib.pyd',
   'EXTENSION'),
  ('_lzma',
   'c:\\users\\dydrn\\appdata\\local\\programs\\python\\python35\\DLLs\\_lzma.pyd',
   'EXTENSION'),
  ('_socket',
   'c:\\users\\dydrn\\appdata\\local\\programs\\python\\python35\\DLLs\\_socket.pyd',
   'EXTENSION'),
  ('_bz2',
   'c:\\users\\dydrn\\appdata\\local\\programs\\python\\python35\\DLLs\\_bz2.pyd',
   'EXTENSION'),
  ('unicodedata',
   'c:\\users\\dydrn\\appdata\\local\\programs\\python\\python35\\DLLs\\unicodedata.pyd',
   'EXTENSION'),
  ('select',
   'c:\\users\\dydrn\\appdata\\local\\programs\\python\\python35\\DLLs\\select.pyd',
   'EXTENSION'),
  ('base_library.zip',
   'C:\\Users\\dydrn\\PycharmProjects\\2dgpProject\\2dgpLab\\Lab15(AppPackaging)\\build\\test\\base_library.zip',
   'DATA'),
  ('test.exe.manifest',
   'C:\\Users\\dydrn\\PycharmProjects\\2dgpProject\\2dgpLab\\Lab15(AppPackaging)\\build\\test\\test.exe.manifest',
   'BINARY'),
  ('pyi-windows-manifest-filename test.exe.manifest', '', 'OPTION')],
 False,
 False,
 False)
