('C:\\Users\\dydrn\\PycharmProjects\\2dgpProject\\2dgpLab\\Lab15(AppPackaging)\\dist\\test.exe',
 True,
 False,
 False,
 None,
 None,
 False,
 False,
 '<?xml version="1.0" encoding="UTF-8" standalone="yes"?><assembly manifestVersion="1.0" xmlns="urn:schemas-microsoft-com:asm.v1"><assemblyIdentity name="test" processorArchitecture="amd64" type="win32" version="1.0.0.0"/><dependency><dependentAssembly><assemblyIdentity language="*" name="Microsoft.Windows.Common-Controls" processorArchitecture="*" publicKeyToken="6595b64144ccf1df" type="win32" version="6.0.0.0"/><compatibility xmlns="urn:schemas-microsoft-com:compatibility.v1"/></dependentAssembly></dependency><compatibility xmlns="urn:schemas-microsoft-com:compatibility.v1"><application><supportedOS Id="{8e0f7a12-bfb3-4fe8-b9a5-48fd50a15a9a}"/><supportedOS Id="{1f676c76-80e1-4239-95bb-83d0f6d0da78}"/><supportedOS Id="{4a2f28e3-53b9-4441-ba9c-d69d4a4a6e38}"/><supportedOS Id="{e2011457-1546-43c5-a5fe-008deee3d3f0}"/><supportedOS Id="{35138b9a-5d96-4fbd-8e2d-a2440225f93a}"/></application></compatibility></assembly>',
 True,
 'test.pkg',
 [('out00-PYZ.pyz',
   'C:\\Users\\dydrn\\PycharmProjects\\2dgpProject\\2dgpLab\\Lab15(AppPackaging)\\build\\test\\out00-PYZ.pyz',
   'PYZ'),
  ('struct',
   'c:\\users\\dydrn\\appdata\\local\\programs\\python\\python35\\lib\\struct.pyo',
   'PYMODULE'),
  ('pyimod01_os_path',
   'c:\\users\\dydrn\\appdata\\local\\programs\\python\\python35\\lib\\site-packages\\PyInstaller\\loader\\pyimod01_os_path.pyc',
   'PYMODULE'),
  ('pyimod02_archive',
   'c:\\users\\dydrn\\appdata\\local\\programs\\python\\python35\\lib\\site-packages\\PyInstaller\\loader\\pyimod02_archive.pyc',
   'PYMODULE'),
  ('pyimod03_importers',
   'c:\\users\\dydrn\\appdata\\local\\programs\\python\\python35\\lib\\site-packages\\PyInstaller\\loader\\pyimod03_importers.pyc',
   'PYMODULE'),
  ('pyiboot01_bootstrap',
   'c:\\users\\dydrn\\appdata\\local\\programs\\python\\python35\\lib\\site-packages\\PyInstaller\\loader\\pyiboot01_bootstrap.py',
   'PYSOURCE'),
  ('test',
   'C:\\Users\\dydrn\\PycharmProjects\\2dgpProject\\2dgpLab\\Lab15(AppPackaging)\\test.py',
   'PYSOURCE'),
  ('VCRUNTIME140.dll',
   'c:\\users\\dydrn\\appdata\\local\\programs\\python\\python35\\VCRUNTIME140.dll',
   'BINARY'),
  ('python35.dll',
   'c:\\users\\dydrn\\appdata\\local\\programs\\python\\python35\\python35.dll',
   'BINARY'),
  ('_ssl',
   'c:\\users\\dydrn\\appdata\\local\\programs\\python\\python35\\DLLs\\_ssl.pyd',
   'EXTENSION'),
  ('pyexpat',
   'c:\\users\\dydrn\\appdata\\local\\programs\\python\\python35\\DLLs\\pyexpat.pyd',
   'EXTENSION'),
  ('_hashlib',
   'c:\\users\\dydrn\\appdata\\local\\programs\\python\\python35\\DLLs\\_hashlib.pyd',
   'EXTENSION'),
  ('_lzma',
   'c:\\users\\dydrn\\appdata\\local\\programs\\python\\python35\\DLLs\\_lzma.pyd',
   'EXTENSION'),
  ('_socket',
   'c:\\users\\dydrn\\appdata\\local\\programs\\python\\python35\\DLLs\\_socket.pyd',
   'EXTENSION'),
  ('_bz2',
   'c:\\users\\dydrn\\appdata\\local\\programs\\python\\python35\\DLLs\\_bz2.pyd',
   'EXTENSION'),
  ('unicodedata',
   'c:\\users\\dydrn\\appdata\\local\\programs\\python\\python35\\DLLs\\unicodedata.pyd',
   'EXTENSION'),
  ('select',
   'c:\\users\\dydrn\\appdata\\local\\programs\\python\\python35\\DLLs\\select.pyd',
   'EXTENSION'),
  ('base_library.zip',
   'C:\\Users\\dydrn\\PycharmProjects\\2dgpProject\\2dgpLab\\Lab15(AppPackaging)\\build\\test\\base_library.zip',
   'DATA'),
  ('test.exe.manifest',
   'C:\\Users\\dydrn\\PycharmProjects\\2dgpProject\\2dgpLab\\Lab15(AppPackaging)\\build\\test\\test.exe.manifest',
   'BINARY'),
  ('pyi-windows-manifest-filename test.exe.manifest', '', 'OPTION')],
 [],
 False,
 False,
 1512104682,
 [('run.exe',
   'c:\\users\\dydrn\\appdata\\local\\programs\\python\\python35\\lib\\site-packages\\PyInstaller\\bootloader\\Windows-64bit\\run.exe',
   'EXECUTABLE')])
